*** Darwin 10x10 ***
Turn = 0.
  0123456789
0 f.........
1 .h........
2 ..t.......
3 ...r......
4 ....f.....
5 .....h....
6 ......t...
7 .......r..
8 ........h.
9 .........h

Turn = 3.
  0123456789
0 fh........
1 ..........
2 ..t..h....
3 ..........
4 ....f..r..
5 ..........
6 ...r..t...
7 ..........
8 ..........
9 ........hh

Turn = 6.
  0123456789
0 fh...h....
1 .......r..
2 ..t.......
3 ..........
4 ....f.....
5 ..........
6 ......t...
7 ..........
8 ..........
9 ...r....hh

*** Darwin 2x2 ***
Turn = 0.
  01
0 ff
1 fh

Turn = 10.
  01
0 ff
1 fh

*** Darwin 7x11 ***
Turn = 0.
  01234567890
0 h..........
1 .tftrrhh...
2 .r.........
3 ....f......
4 ...r.......
5 ......h....
6 .....h..htt

Turn = 7.
  01234567890
0 ..t........
1 .ttttttt...
2 .....t.....
3 ....f......
4 ..........r
5 ..........t
6 .......tttt

Turn = 14.
  01234567890
0 ..t........
1 .ttttttt...
2 .....t.....
3 ....f......
4 ..........t
5 ..........t
6 .......tttt

Turn = 21.
  01234567890
0 ..t........
1 .ttttttt...
2 .....t.....
3 ....f......
4 ..........t
5 ..........t
6 .......tttt

Turn = 28.
  01234567890
0 ..t........
1 .ttttttt...
2 .....t.....
3 ....f......
4 ..........t
5 ..........t
6 .......tttt

Turn = 35.
  01234567890
0 ..t........
1 .ttttttt...
2 .....t.....
3 ....f......
4 ..........t
5 ..........t
6 .......tttt

Turn = 42.
  01234567890
0 ..t........
1 .ttttttt...
2 .....t.....
3 ....f......
4 ..........t
5 ..........t
6 .......tttt

Turn = 49.
  01234567890
0 ..t........
1 .ttttttt...
2 .....t.....
3 ....f......
4 ..........t
5 ..........t
6 .......tttt

Turn = 56.
  01234567890
0 ..t........
1 .ttttttt...
2 .....t.....
3 ....f......
4 ..........t
5 ..........t
6 .......tttt

Turn = 63.
  01234567890
0 ..t........
1 .ttttttt...
2 .....t.....
3 ....f......
4 ..........t
5 ..........t
6 .......tttt

Turn = 70.
  01234567890
0 ..t........
1 .ttttttt...
2 .....t.....
3 ....f......
4 ..........t
5 ..........t
6 .......tttt

*** Darwin 30x30 ***
Turn = 0.
  012345678901234567890123456789
0 ..............................
1 ..............................
2 ..............................
3 ..............................
4 ..............................
5 ..............................
6 ..............................
7 ..............................
8 ..............................
9 ..............................
0 ..............................
1 ..............................
2 ..............................
3 ..............................
4 ..............................
5 ..............................
6 ..............................
7 ..............................
8 ..............................
9 ..............................
0 ..............................
1 ..............................
2 ..............................
3 ..............................
4 ..............................
5 ..............................
6 ..............................
7 ..............................
8 ..............................
9 ....................fhhhrrrttt

Turn = 3.
  012345678901234567890123456789
0 ..............................
1 ..............................
2 ..............................
3 ..............................
4 ..............................
5 ..............................
6 ..............................
7 ..............................
8 ..............................
9 ..............................
0 ..............................
1 ..............................
2 ..............................
3 ..............................
4 ..............................
5 ..............................
6 ..............................
7 ..............................
8 ..............................
9 ..............................
0 ..............................
1 ..............................
2 ..............................
3 ..............................
4 ..............................
5 ..............................
6 .......................h......
7 ..............................
8 ...........................r..
9 ....................frrrr.r.tt

Turn = 6.
  012345678901234567890123456789
0 ..............................
1 ..............................
2 ..............................
3 ..............................
4 ..............................
5 ..............................
6 ..............................
7 ..............................
8 ..............................
9 ..............................
0 ..............................
1 ..............................
2 ..............................
3 ..............................
4 ..............................
5 ..............................
6 ..............................
7 ..............................
8 ..............................
9 ..............................
0 ..............................
1 ..............................
2 ..............................
3 .......................h......
4 ..............................
5 ...........................r..
6 .......................r......
7 ..............................
8 .......................r......
9 ..................rr.r.....ttt

Turn = 9.
  012345678901234567890123456789
0 ..............................
1 ..............................
2 ..............................
3 ..............................
4 ..............................
5 ..............................
6 ..............................
7 ..............................
8 ..............................
9 ..............................
0 ..............................
1 ..............................
2 ..............................
3 ..............................
4 ..............................
5 ..............................
6 ..............................
7 ..............................
8 ..............................
9 ..............................
0 .......................h......
1 ..............................
2 ...........................r..
3 .......................r......
4 ..............................
5 .......................r......
6 ..............................
7 ..............................
8 ..............................
9 ...............rr.r........ttt

*** Darwin 2x2 ***
Turn = 0.
  01
0 .f
1 ..

Turn = 1.
  01
0 .f
1 ..

Turn = 2.
  01
0 .f
1 ..

*** Darwin 10x10 ***
Turn = 0.
  0123456789
0 .r........
1 ..........
2 ..........
3 ..........
4 ..........
5 ..........
6 .....r....
7 ..........
8 .......r..
9 ..........

Turn = 5.
  0123456789
0 ......r...
1 ..........
2 ..........
3 ..........
4 ..........
5 ..........
6 r.........
7 ..........
8 ..........
9 ....r.....

Turn = 10.
  0123456789
0 ..........
1 .........r
2 ..........
3 ..........
4 ..........
5 ..........
6 ..........
7 ..........
8 .r........
9 r.........

Turn = 15.
  0123456789
0 ..........
1 ..........
2 ..........
3 .r........
4 ..........
5 r.........
6 .........r
7 ..........
8 ..........
9 ..........

Turn = 20.
  0123456789
0 r.........
1 r.........
2 ..........
3 ..........
4 ..........
5 ..........
6 ..........
7 ..........
8 ..........
9 .........r

*** Darwin 12x10 ***
Turn = 0.
  0123456789
0 ..........
1 ..........
2 ..........
3 ..........
4 ..........
5 ..........
6 ......fthr
7 ..........
8 ..........
9 ..........
0 ..........
1 ..........

Turn = 2.
  0123456789
0 ..........
1 ..........
2 ..........
3 ..........
4 ..........
5 ..........
6 ......fttt
7 ..........
8 ..........
9 ..........
0 ..........
1 ..........

Turn = 4.
  0123456789
0 ..........
1 ..........
2 ..........
3 ..........
4 ..........
5 ..........
6 ......fttt
7 ..........
8 ..........
9 ..........
0 ..........
1 ..........

Turn = 6.
  0123456789
0 ..........
1 ..........
2 ..........
3 ..........
4 ..........
5 ..........
6 ......tttt
7 ..........
8 ..........
9 ..........
0 ..........
1 ..........

*** Darwin 3x5 ***
Turn = 0.
  01234
0 h....
1 .....
2 .....

Turn = 1.
  01234
0 .h...
1 .....
2 .....

*** Darwin 9x9 ***
Turn = 0.
  012345678
0 .........
1 .........
2 .........
3 .....r...
4 .........
5 .........
6 .........
7 .........
8 ..t......

Turn = 8.
  012345678
0 .........
1 r........
2 .........
3 .........
4 .........
5 .........
6 .........
7 .........
8 ..t......

Turn = 16.
  012345678
0 ....r....
1 .........
2 .........
3 .........
4 .........
5 .........
6 .........
7 .........
8 ..t......

*** Darwin 6x6 ***
Turn = 0.
  012345
0 ......
1 ..rh..
2 .h....
3 .r....
4 ......
5 ......

Turn = 2.
  012345
0 ...r..
1 ...r..
2 h.....
3 ...r..
4 ......
5 ......

Turn = 4.
  012345
0 .....r
1 .....r
2 h.....
3 .....r
4 ......
5 ......

Turn = 6.
  012345
0 .....r
1 ......
2 h....r
3 ......
4 .....r
5 ......

*** Darwin 7x7 ***
Turn = 0.
  0123456
0 .......
1 ...h...
2 ....r..
3 .......
4 .......
5 ......t
6 ......r

Turn = 6.
  0123456
0 ...h...
1 .......
2 .......
3 .......
4 .......
5 ......t
6 r..r...

Turn = 12.
  0123456
0 ...h...
1 .......
2 .......
3 rr.....
4 .......
5 ......t
6 .......

Turn = 18.
  0123456
0 rr.h...
1 .......
2 .......
3 .......
4 .......
5 ......t
6 .......

Turn = 24.
  0123456
0 ...h...
1 .......
2 .......
3 .......
4 .......
5 rr....t
6 .......

Turn = 30.
  0123456
0 ...h...
1 .......
2 .......
3 .......
4 .......
5 r.....t
6 ...r...
